{
  "scripts": [
    "./node_modules/jquery/dist/jquery.js",
    "./node_modules/bootstrap/dist/js/util.js",
    "./node_modules/bootstrap/dist/js/bootstrap.min.js",
    "./node_modules/scrollpos-styler/scrollPosStyler.js",
    "./node_modules/swiper/dist/js/swiper.min.js",
    "./node_modules/isotope-layout/dist/isotope.pkgd.min.js",
    "./node_modules/angular/angular.js",
    "./node_modules/angular-route/angular-route.js",
    "./node_modules/angular-sanitize/angular-sanitize.js",
    "./node_modules/wowjs/dist/wow.js",
    "./src/js/nivo-lightbox.min.js",
    "./src/js/angular/app.js",
    "./src/js/angular/users.js",
    "./src/js/angular/instagram.js",
    "./src/js/app.js"
  ]
}
